<svg width="5" height="8" viewBox="0 0 5 8" fill="none" xmlns="http://www.w3.org/2000/svg">
<path d="M0.638402 8C0.462963 8 0.307018 7.9464 0.190058 7.8392C-0.0633528 7.62479 -0.0633528 7.24958 0.190058 7.03518L3.48441 3.99777L0.190058 0.978224C-0.0633528 0.763819 -0.0633528 0.38861 0.190058 0.174204C0.423977 -0.0580681 0.833333 -0.0580681 1.06725 0.174204L4.80994 3.60469C5.06335 3.8191 5.06335 4.1943 4.80994 4.40871L1.06725 7.8392C0.950292 7.9464 0.794347 8 0.638402 8Z" fill="#4294F6"/>
</svg>
