<svg width="11" height="15" viewBox="0 0 11 15" fill="none" xmlns="http://www.w3.org/2000/svg">
<path d="M9.98047 3.32031L7.92969 1.26953C7.60156 0.941406 7.16406 0.75 6.69922 0.75H1.75C0.765625 0.75 0 1.54297 0 2.5V13C0 13.9844 0.765625 14.75 1.75 14.75H8.75C9.70703 14.75 10.5 13.9844 10.5 13V4.55078C10.5 4.08594 10.3086 3.64844 9.98047 3.32031ZM9.1875 13C9.1875 13.2461 8.96875 13.4375 8.75 13.4375H1.75C1.50391 13.4375 1.3125 13.2461 1.3125 13V2.52734C1.3125 2.28125 1.50391 2.08984 1.75 2.08984H6.125V4.25C6.125 4.74219 6.50781 5.125 7 5.125H9.1875V13ZM5.90625 6.875C5.90625 6.51953 5.60547 6.21875 5.25 6.21875C4.86719 6.21875 4.59375 6.51953 4.59375 6.875V8.40625H3.0625C2.67969 8.40625 2.40625 8.70703 2.40625 9.0625C2.40625 9.41797 2.67969 9.69141 3.0625 9.69141H4.59375V11.2227C4.59375 11.6328 4.86719 11.9062 5.25 11.9062C5.60547 11.9062 5.90625 11.6328 5.90625 11.2773V9.71875H7.4375C7.79297 9.71875 8.09375 9.41797 8.09375 9.0625C8.09375 8.73438 7.79297 8.43359 7.4375 8.43359H5.90625V6.875Z" fill="#DA7600"/>
</svg>
