<svg width="11" height="6" viewBox="0 0 11 6" fill="none" xmlns="http://www.w3.org/2000/svg">
<path d="M0.351562 4.60156L4.82812 0.3125C4.96875 0.195312 5.10938 0.125 5.25 0.125C5.39062 0.125 5.50781 0.171875 5.625 0.265625L10.1016 4.55469C10.3359 4.78906 10.3359 5.14062 10.125 5.35156C9.91406 5.58594 9.5625 5.58594 9.32812 5.375L5.25 1.48438L1.125 5.42188C0.914062 5.63281 0.539062 5.63281 0.328125 5.39844C0.117188 5.16406 0.117188 4.8125 0.351562 4.60156Z" fill="#607D8B"/>
</svg>
