<svg width="9" height="5" viewBox="0 0 9 5" fill="none" xmlns="http://www.w3.org/2000/svg">
<path d="M7.5 4.5C7.35938 4.5 7.23438 4.45312 7.14062 4.35938L4.5 1.71875L1.84375 4.35938C1.65625 4.5625 1.32812 4.5625 1.14062 4.35938C0.9375 4.17188 0.9375 3.84375 1.14062 3.65625L4.14062 0.65625C4.32812 0.453125 4.65625 0.453125 4.84375 0.65625L7.84375 3.65625C8.04688 3.84375 8.04688 4.17188 7.84375 4.35938C7.75 4.45312 7.625 4.5 7.5 4.5Z" fill="#595E72"/>
</svg>
