<svg width="9" height="5" viewBox="0 0 9 5" fill="none" xmlns="http://www.w3.org/2000/svg">
<path d="M4.5 4.5C4.35938 4.5 4.23438 4.45312 4.14062 4.35938L1.14062 1.35938C0.9375 1.17188 0.9375 0.84375 1.14062 0.65625C1.32812 0.453125 1.65625 0.453125 1.84375 0.65625L4.5 3.29688L7.14062 0.65625C7.32812 0.453125 7.65625 0.453125 7.84375 0.65625C8.04688 0.84375 8.04688 1.17188 7.84375 1.35938L4.84375 4.35938C4.75 4.45312 4.625 4.5 4.5 4.5Z" fill="#595E72"/>
</svg>
