<svg width="52" height="40" viewBox="0 0 52 40" fill="none" xmlns="http://www.w3.org/2000/svg">
<rect x="9.60938" y="8.18561" width="11.3886" height="31.6747" rx="3" fill="#FFB700"/>
<rect x="32.3867" width="11.3886" height="39.8602" rx="3" fill="#FFB700"/>
<path d="M47.9595 31.7849C47.7154 32.4707 47.0275 33.1213 45.6671 33.5991C44.317 34.0733 42.456 34.3175 40.1799 34.2889C35.6381 34.2317 29.673 33.0917 23.3835 30.8525C17.094 28.6134 11.7504 25.7274 8.19426 22.9017C6.4121 21.4856 5.12412 20.1202 4.37744 18.8996C3.62501 17.6696 3.503 16.7307 3.74717 16.0449C3.99133 15.359 4.67921 14.7084 6.03964 14.2306C7.38967 13.7565 9.25069 13.5122 11.5268 13.5409C16.0686 13.5981 22.0337 14.7381 28.3232 16.9772C34.6127 19.2163 39.9563 22.1023 43.5125 24.9281C45.2946 26.3442 46.5826 27.7095 47.3293 28.9301C48.0817 30.1601 48.2037 31.099 47.9595 31.7849Z" stroke="#7CC969" stroke-width="2"/>
<rect x="32.3867" y="8.18561" width="11.3886" height="18.8624" fill="#FFB700"/>
<rect x="9.60938" y="8.18561" width="11.3886" height="13.1681" rx="3" fill="#FFB700"/>
<circle cx="9.60913" cy="24.9127" r="1.42358" fill="#FFE071"/>
<circle cx="45.9109" cy="26.3362" r="1.42358" fill="#FFE071"/>
</svg>
