<svg width="14" height="13" viewBox="0 0 14 13" fill="none" xmlns="http://www.w3.org/2000/svg">
<path d="M1.75 11.375H6.39062L6.27344 11.8672C6.22656 12.0781 6.22656 12.3125 6.29688 12.5H1.75C0.90625 12.5 0.25 11.8438 0.25 11V2C0.25 1.17969 0.90625 0.5 1.75 0.5H5.61719C6.01562 0.5 6.39062 0.664062 6.67188 0.945312L8.80469 3.07812C9.08594 3.35938 9.25 3.73438 9.25 4.13281V7.53125L8.125 8.65625V4.25H6.25C5.82812 4.25 5.5 3.92188 5.5 3.5V1.625H1.75C1.53906 1.625 1.375 1.8125 1.375 2V11C1.375 11.2109 1.53906 11.375 1.75 11.375ZM13.4688 6.38281C13.8203 6.73438 13.8203 7.32031 13.4688 7.69531L12.7656 8.39844L11.1016 6.73438L11.8047 6.03125C12.1562 5.67969 12.7656 5.67969 13.1172 6.03125L13.4688 6.38281ZM7.53906 10.2734L10.5859 7.25L12.25 8.91406L9.20312 11.9375C9.10938 12.0312 8.99219 12.1016 8.875 12.1484L7.44531 12.5C7.32812 12.5234 7.1875 12.5 7.09375 12.4062C7 12.3125 6.97656 12.1719 7 12.0312L7.35156 10.625C7.375 10.5078 7.44531 10.3906 7.53906 10.2734Z" fill="#607D8B"/>
</svg>
