<svg width="12" height="12" viewBox="0 0 12 12" fill="none" xmlns="http://www.w3.org/2000/svg">
<path d="M11.375 5.42188L6.89844 9.71094C6.75781 9.82812 6.61719 9.875 6.5 9.875C6.35938 9.875 6.21875 9.82812 6.10156 9.73438L1.60156 5.42188C1.36719 5.21094 1.36719 4.83594 1.57812 4.625C1.78906 4.39062 2.16406 4.39062 2.375 4.60156L6.5 8.53906L10.6016 4.60156C10.8125 4.39062 11.1875 4.39062 11.3984 4.625C11.6094 4.83594 11.6094 5.21094 11.375 5.42188Z" fill="white" fill-opacity="0.49"/>
</svg>
