<svg width="12" height="11" viewBox="0 0 12 11" fill="none" xmlns="http://www.w3.org/2000/svg">
<path d="M8.75 2.9375C8.75 2.42969 8.32031 2 7.8125 2H6.875V1.375C6.875 1.04297 6.58203 0.75 6.25 0.75C5.89844 0.75 5.625 1.04297 5.625 1.375V2H3.125V1.375C3.125 1.04297 2.83203 0.75 2.5 0.75C2.14844 0.75 1.875 1.04297 1.875 1.375V2H0.9375C0.410156 2 0 2.42969 0 2.9375V3.875H8.75V2.9375ZM8.4375 5.125C6.875 5.125 5.625 6.39453 5.625 7.9375C5.625 9.5 6.875 10.75 8.4375 10.75C9.98047 10.75 11.25 9.5 11.25 7.9375C11.25 6.39453 9.98047 5.125 8.4375 5.125ZM9.375 8.25H8.30078C8.20312 8.25 8.125 8.17188 8.125 8.07422V6.6875C8.125 6.53125 8.26172 6.375 8.4375 6.375C8.59375 6.375 8.75 6.53125 8.75 6.6875V7.625H9.375C9.53125 7.625 9.6875 7.78125 9.6875 7.9375C9.6875 8.11328 9.53125 8.25 9.375 8.25ZM5 7.9375C5 6.04297 6.52344 4.5 8.4375 4.5H0V9.8125C0 10.3398 0.410156 10.75 0.9375 10.75H6.46484C5.56641 10.1445 5 9.10938 5 7.9375Z" fill="#1E3A8A"/>
</svg>
