<svg width="13" height="15" viewBox="0 0 13 15" fill="none" xmlns="http://www.w3.org/2000/svg">
<path d="M4.375 11.6875C4.375 11.9336 4.15625 12.125 3.9375 12.125C3.69141 12.125 3.5 11.9336 3.5 11.6875V6C3.5 5.78125 3.69141 5.5625 3.9375 5.5625C4.15625 5.5625 4.375 5.78125 4.375 6V11.6875ZM6.5625 11.6875C6.5625 11.9336 6.34375 12.125 6.125 12.125C5.87891 12.125 5.6875 11.9336 5.6875 11.6875V6C5.6875 5.78125 5.87891 5.5625 6.125 5.5625C6.34375 5.5625 6.5625 5.78125 6.5625 6V11.6875ZM8.75 11.6875C8.75 11.9336 8.53125 12.125 8.3125 12.125C8.06641 12.125 7.875 11.9336 7.875 11.6875V6C7.875 5.78125 8.06641 5.5625 8.3125 5.5625C8.53125 5.5625 8.75 5.78125 8.75 6V11.6875ZM8.66797 1.43359L9.67969 2.9375H11.5938C11.9492 2.9375 12.25 3.23828 12.25 3.59375C12.25 3.97656 11.9492 4.25 11.5938 4.25H11.375V12.5625C11.375 13.793 10.3906 14.75 9.1875 14.75H3.0625C1.83203 14.75 0.875 13.793 0.875 12.5625V4.25H0.65625C0.273438 4.25 0 3.97656 0 3.59375C0 3.23828 0.273438 2.9375 0.65625 2.9375H2.54297L3.55469 1.43359C3.82812 1.02344 4.32031 0.75 4.83984 0.75H7.38281C7.90234 0.75 8.39453 1.02344 8.66797 1.43359ZM4.12891 2.9375H8.09375L7.57422 2.17188C7.54688 2.11719 7.46484 2.0625 7.38281 2.0625H4.83984C4.75781 2.0625 4.67578 2.11719 4.64844 2.17188L4.12891 2.9375ZM2.1875 12.5625C2.1875 13.0547 2.57031 13.4375 3.0625 13.4375H9.1875C9.65234 13.4375 10.0625 13.0547 10.0625 12.5625V4.25H2.1875V12.5625Z" fill="#DA7600"/>
</svg>
