<svg width="16" height="14" viewBox="0 0 16 14" fill="none" xmlns="http://www.w3.org/2000/svg">
<path d="M1 12.5C1 13.3281 1.67156 14 2.5 14H13.5C14.3284 14 15 13.3284 15 12.5V4H1V12.5ZM5 6.375C5 6.16875 5.16875 6 5.375 6H10.625C10.8312 6 11 6.16875 11 6.375V6.625C11 6.83125 10.8312 7 10.625 7H5.375C5.16875 7 5 6.83125 5 6.625V6.375ZM15 0H1C0.447187 0 0 0.447187 0 1V2.5C0 2.775 0.224625 3 0.5 3H15.5C15.775 3 16 2.775 16 2.5V1C16 0.447187 15.5531 0 15 0Z" fill="white"/>
</svg>
