<svg width="40" height="31" viewBox="0 0 40 31" fill="none" xmlns="http://www.w3.org/2000/svg">
<rect x="7.43359" y="6.21918" width="8.81012" height="24.0656" rx="3" fill="#E4F2FE"/>
<rect x="25.0537" width="8.81012" height="30.2848" rx="3" fill="#E4F2FE"/>
<path d="M36.886 24.0741C36.7339 24.4938 36.284 24.9512 35.2622 25.3037C34.2526 25.6519 32.8418 25.8368 31.0946 25.8152C27.6108 25.7721 23.0202 24.9122 18.1707 23.2166C13.3213 21.5209 9.21015 19.3382 6.48245 17.2095C5.11438 16.1418 4.13993 15.123 3.58152 14.2264C3.01637 13.3191 2.96204 12.6854 3.11417 12.2657C3.2663 11.846 3.71615 11.3886 4.73797 11.0361C5.74759 10.6878 7.15836 10.503 8.90561 10.5246C12.3893 10.5677 16.98 11.4276 21.8294 13.1232C26.6789 14.8188 30.79 17.0015 33.5177 19.1303C34.8858 20.1979 35.8602 21.2168 36.4186 22.1133C36.9838 23.0207 37.0381 23.6544 36.886 24.0741Z" stroke="#7CC969" stroke-width="2"/>
<rect x="25.0537" y="6.21918" width="8.81012" height="14.3312" fill="#E4F2FE"/>
<rect x="7.43359" y="6.21918" width="8.81012" height="10.0048" rx="3" fill="#E4F2FE"/>
<ellipse cx="7.4333" cy="18.928" rx="1.10127" ry="1.0816" fill="#FFE071"/>
<ellipse cx="35.5158" cy="20.0096" rx="1.10126" ry="1.0816" fill="#FFE071"/>
</svg>
